Linear regression in R using lm
================

``` r
x1 <- runif(n = 1e2, min = 0, max = 100)
b0 <- 2.0
b1 <- 1.0
eps <- rnorm(n = 1e2, mean = 0, sd = 20)
y <- b0 + (b1 * x1) + eps
df <- data_frame(y, x1)
df
```

    ## # A tibble: 100 × 2
    ##            y       x1
    ##        <dbl>    <dbl>
    ## 1   44.93942 25.71350
    ## 2  113.90982 81.67625
    ## 3   11.41699 32.01002
    ## 4   87.53625 80.75687
    ## 5   96.39415 79.30713
    ## 6   59.76371 70.44679
    ## 7   59.80777 70.24617
    ## 8   36.74993 43.54925
    ## 9   53.35105 40.28615
    ## 10  49.71395 53.06514
    ## # ... with 90 more rows
…
