…
theta <- arm::invlogit(b0 + (b1 * x1))
y <- rep(NA, N);
for (i in 1:N) {
    y[i] = rbinom(1, 1, theta[i]);
}
df <- data_frame(y, x1)
df
```

    ## # A tibble: 100 × 2
    ##        y        x1
    ##    <int>     <dbl>
    ## 1      1 1.9892122
    ## 2      0 0.2875766
    ## 3      0 1.7518180
    ## 4      1 1.6117794
    ## 5      1 1.4413256
    ## 6      0 1.4710032
    ## 7      0 1.5485126
    ## 8      0 0.7024796
    ## 9      0 1.0193158
    ## 10     1 1.1424787
    ## # ... with 90 more rows
…
